﻿apppath.utilities.windows\_path\_utilities
==========================================

.. automodule:: apppath.utilities.windows_path_utilities

   
   
   

   
   
   

   
   
   

   
   
   



